79389 653675 509
272891 743787 509
537585 43721 470
869353 421647 525
119868 123849 336
537470 494633 470
527750 64104 470
536846 527645 377
143061 525259 470
108304 781035 509
699387 5856 509
458227 255302 449
847531 170593 525
730862 325263 509
167385 861880 525
370144 311420 441
939747 603773 525
157543 711046 509
246913 910672 525
670971 602801 509
630390 573448 509
252333 220181 443
449134 571191 470
343611 117684 443
395641 74177 443
781804 491868 509
177528 933875 525
36053 773776 509
678023 104805 509
917951 430171 525
818790 247989 509
630297 664177 429
485527 641506 509
678655 536693 509
645796 757016 504
228155 165427 386
468973 58013 449
298016 488649 449
294353 187005 443
868572 879983 432
583103 969077 525
675522 502935 509
744184 366059 509
231290 3050 443
732576 748096 424
776240 547848 509
438501 174898 449
983935 778963 525
714336 417520 509
772550 628 509
964878 702989 525
86828 827289 509
128306 146878 375
724045 614977 509
471062 808839 509
423452 685644 509
482086 751047 509
240078 809928 509
590629 283949 470
594626 47564 470
299113 800117 509
695825 891143 525
74392 874400 525
989572 580258 525
65108 125885 354
284114 451596 449
756051 742820 424
736573 655622 504
369205 749026 509
300866 651331 509
302238 142807 443
481412 821415 509
283500 931279 525
738380 244834 509
329270 974062 525
29795 268968 443
468847 408359 449
624932 156276 470
6669 478631 449
129590 309662 443
774017 238501 509
247468 899183 525
778614 449456 509
229096 432662 449
430573 934031 525
6139 210848 383
593528 468602 470
748666 729344 424
196530 372006 443
963358 741705 525
972466 511215 525
163762 620577 470
640223 969386 525
328621 522343 470
382868 747868 509
826898 932401 525
769320 753582 468
785512 217276 509
218326 226754 368
445324 250179 449
183902 947905 525
271766 406092 441
685266 688787 398
63492 41985 340
474871 111262 449
700910 811166 504
875796 793066 525
656901 646025 429
745153 978366 525
778084 497462 509
555257 541124 452
554193 139856 470
850759 569618 525
643902 507009 509
395780 726911 509
432601 328104 449
590632 835639 509
370353 410982 449
399851 155699 443
116833 304936 443
5735 114874 354
547246 991909 525
835254 74780 509
198672 158530 370
331721 261456 407
350398 573434 470
348703 244468 441
548438 340424 470
283224 740849 509
794438 700171 504
927887 273852 525
199807 133891 383
215551 634380 509
233957 949451 525
345027 999021 525
15101 141384 354
792927 668246 504
280439 928873 525
678560 426857 509
347397 345101 441
238171 776072 509
314626 57040 443
487389 976414 525
617972 148561 470
493748 99445 449
483238 513271 470
41105 325062 443
312867 814309 509
544270 446139 470
733235 79650 509
