794952 814690 468
255373 474129 449
100241 801032 509
689627 768487 504
691069 964601 525
890931 599308 525
705651 934564 525
526154 13828 470
855189 262978 525
226789 311669 443
521065 204569 470
218140 560846 470
611297 137138 470
318268 156487 443
397742 923399 525
29889 136765 354
814260 482765 509
156017 311429 443
82882 938731 525
3334 91141 351
263710 246673 407
500807 735990 509
937239 110298 525
707532 591313 509
706003 197633 509
794172 556922 509
407327 955193 525
730980 803318 468
965735 941908 414
851535 632013 525
548380 660658 509
796107 523725 509
589167 425508 470
905555 950157 507
381184 552241 470
911257 489185 525
753579 1772 509
176359 690361 509
489577 195926 449
956789 565993 525
457255 802976 509
544957 237610 470
997373 600729 525
603662 580442 434
29384 35813 324
475004 192866 449
236348 314386 407
532217 19544 470
310305 199372 443
644209 969695 525
89241 798397 509
627444 427600 509
497218 857802 525
734261 590230 509
841511 756940 525
298553 882848 525
596395 747954 509
744075 476063 509
217435 549935 470
234490 759247 509
768952 675928 504
857008 593091 525
574397 345723 470
305703 410162 449
220663 642910 509
858104 592148 525
188221 809346 509
610820 27779 470
24989 244908 443
382365 451277 449
937950 764774 525
13011 337151 443
169753 153551 383
346435 219469 443
394412 399150 405
11635 977756 525
243751 276415 407
711867 827475 468
812759 827232 450
557979 634166 509
97587 820968 509
403053 796254 509
156556 36607 383
877057 207364 525
176984 210493 373
592917 493184 470
532573 975461 525
799500 561865 509
559295 529965 452
873725 169789 525
273643 823516 509
499450 394764 449
81040 979713 525
538792 893516 525
650184 628119 416
70583 451766 449
473962 85780 449
783697 6749 509
957201 580396 525
203501 249213 443
619103 189862 470
707195 968850 525
68374 785762 509
109108 330506 443
742122 267651 509
661909 613961 509
330733 537242 470
696489 135806 509
553116 846969 525
359717 705586 509
580868 804013 509
762067 449028 509
173723 388783 443
739588 502065 509
496183 575729 470
265165 802427 509
207690 791920 509
797483 485210 509
309452 645672 509
70439 732875 509
955341 856814 507
304303 47322 443
759152 809388 468
816866 534494 509
57495 842997 525
781979 474717 509
654678 761631 504
78968 483877 449
270311 745637 509
23936 749612 509
993241 562386 525
660680 358543 509
727768 782114 468
299886 879812 525
553147 910099 525
238904 612441 470
922047 629451 525
174341 82495 383
552882 168391 470
321668 144654 443
95239 687239 509
10407 883445 525
27244 742702 509
793241 954246 525
214335 98107 383
21251 777848 509
133121 575623 470
736242 192354 509
645834 646661 323
827878 927350 525
358501 338032 441
884456 3099 525
914601 826640 525
379785 767771 509
752353 782656 468
344493 813421 509
628525 852794 525
836800 765747 468
910011 445059 525
610133 281564 470
358023 956883 525
857318 630667 525
569566 504264 470
277391 223323 443
739112 936710 525
480506 944636 525
132634 714212 509
392196 999245 525
254372 356831 441
656969 848742 525
243978 346068 441
40778 830843 509
33366 205889 383
762706 210718 509
942386 89575 525
383128 760883 509
333592 967366 525
825246 185781 509
433274 22615 449
853463 990769 507
745716 471150 509
960220 676417 525
418400 370873 449
283325 856250 525
642411 549331 509
48292 12230 324
519344 714476 509
788044 159966 509
908386 217204 525
349686 871626 525
397514 221221 443
261279 600061 470
694801 710040 504
922302 708709 525
922963 389411 525
561667 590879 434
891932 178069 525
858474 62430 525
872960 598284 525
766088 307611 509
